/* Ejemplo2 */
/* Este ejemplo contiene un programa sintacticamente correcto con todos nuestros simbolos del lenguaje */

var int edad1 = 19;	/* variable global entero */
var int edad2 = 41;  /* variable global entero */

function int DiferenciaEdad (int n)
{
	if (edad1 != edad2){

		print('las edades son distintas')

		
}

/* suma hasta 100 */

function int SumarHasta100 ()
{
	var int i = 0;
	while(i != 100){
	
	++i;

	return i;
}

function int FactorialWhile ()
{
	var int factorial = 1, i;	/* variables locales: factorial inicializada a 1 e i inicializada a 0 por omision */
	while (i < num)			/* num es variable global entera sin declarar */
	{
		factorial = ++i;	/* equivale a: i = i + 1; */
	}
	return factorial;
}

function int SumaNveces (int n, int num){ /* Sumamos el numero num n veces */

	var int i = 0;
	while ( i != n ) {
	num = num + num; 
	i = i + i; 

	print ( ' el numero final es ' + num );
	
	return num;

}


function bool EsCierto ( int n)
	

	var int numCorrecto=8;
	var bool esIgual = true;
	var String res; 
	res = 'El numero es correcto'

	if (n!=numCorrecto && esIgual){
	
		esIgual = false;
		res = 'El numero no es correcto'
	}

	print ( res );
	return esIgual;

	